%YAML 1.1
%TAG !u! tag:unity3d.com,2011:
--- !u!114 &11400000
MonoBehaviour:
  m_ObjectHideFlags: 0
  m_PrefabParentObject: {fileID: 0}
  m_PrefabInternal: {fileID: 0}
  m_GameObject: {fileID: 0}
  m_Enabled: 1
  m_EditorHideFlags: 0
  m_Script: {fileID: 11500000, guid: 94e5f575fcc2b24488f2b5b0c1102fbb, type: 3}
  m_Name: tower2
  m_EditorClassIdentifier: 
  type: 0
  towerIcon: tower_icon2
  grades:
  - prefabName: Magic_tower3
    cost: 10
    radius: 2
    damage: 4
    bulletSpeed: 2
    cooldown: 2
  - prefabName: Magic_tower4
    cost: 20
    radius: 2.5
    damage: 5
    bulletSpeed: 2.5
    cooldown: 1.6
